{
  "token": "",
  "reaction_yes": "✅",
  "reaction_no": "❎",
  "first_emote": "<:PikaCool:743571909546999819>",
  "special_react_emote": "<:yay:734805624029970543>",
  "roles_channelid": "705911037852909578",
  "mainchat_channelid": "706248791677861948"
}
